…
``` r
lubridate_min_flight$time[1] + hours(1)
```

    ## [1] "2013-01-01 06:15:00 CST"

Lubridate also has nice functions for aggregating data by day or month. For example, you can use `floor_date()` to round down, which aggregates up your temporal data.

``` r
allmin_flights %>% group_by(day=floor_date(time, "day")) %>%
   summarize(flights=sum(flights))
```

    ## # A tibble: 365 x 2
    ##    day                 flights
    ##    <dttm>                <dbl>
    ##  1 2013-01-01 00:00:00     842
    ##  2 2013-01-02 00:00:00     943
    ##  3 2013-01-03 00:00:00     914
    ##  4 2013-01-04 00:00:00     915
    ##  5 2013-01-05 00:00:00     720
    ##  6 2013-01-06 00:00:00     832
    ##  7 2013-01-07 00:00:00     933
    ##  8 2013-01-08 00:00:00     899
    ##  9 2013-01-09 00:00:00     902
    ## 10 2013-01-10 00:00:00     932
    ## # ... with 355 more rows

This can also be done using `group_by()` to construct a day variable like the one we made above we made above, but it won't retain the `POSIXct` object as nicely.

``` r
lubridate_min_flight %>% group_by(day) %>%
   summarize(flights=sum(flights))
```

    ## # A tibble: 31 x 2
    ##      day flights
    ##    <int>   <dbl>
    ##  1     1   11036
    ##  2     2   10808
    ##  3     3   11211
    ##  4     4   11059
    ##  5     5   10858
    ##  6     6   11059
    ##  7     7   10985
    ##  8     8   11271
    ##  9     9   10857
    ## 10    10   11227
    ## # ... with 21 more rows
…
