…
# Wangling the data into a tidy format
For this, we'll be using the `nycflights13` dataset. In this dataset, the year, month, date, hour, and time have been separated into different columns, so we'll want to make a new date-time variable out of these (there is a `time_hour` variable, but let's imagine that we want want to create a new datetime variable with the minute information). We'll first construct a string with all the necessary temporal information (year, month, day, hour, minute).


```r
library(nycflights13)
flights
```

```
## # A tibble: 336,776 x 20
##     year month   day dep_time sched_dep_time dep_delay arr_time
##    <int> <int> <int>    <int>          <int>     <dbl>    <int>
##  1  2013     1     1      517            515         2      830
##  2  2013     1     1      533            529         4      850
##  3  2013     1     1      542            540         2      923
##  4  2013     1     1      544            545        -1     1004
##  5  2013     1     1      554            600        -6      812
##  6  2013     1     1      554            558        -4      740
##  7  2013     1     1      555            600        -5      913
##  8  2013     1     1      557            600        -3      709
##  9  2013     1     1      557            600        -3      838
## 10  2013     1     1      558            600        -2      753
## # ... with 336,766 more rows, and 13 more variables: sched_arr_time <int>,
## #   arr_delay <dbl>, carrier <chr>, flight <int>, tailnum <chr>,
## #   origin <chr>, dest <chr>, air_time <dbl>, distance <dbl>, hour <dbl>,
## #   minute <dbl>, time_hour <dttm>, full_time <dttm>
```
…
Lubridate also has nice functions for aggregating data by day or month. For example, you can use `floor_date()` to round down, which aggregates up your temporal data.

```r
allmin_flights %>% group_by(day=floor_date(time, "day")) %>%
   summarize(flights=sum(flights))
```

```
## # A tibble: 365 x 2
##    day                 flights
##    <dttm>                <dbl>
##  1 2013-01-01 00:00:00     842
##  2 2013-01-02 00:00:00     943
##  3 2013-01-03 00:00:00     914
##  4 2013-01-04 00:00:00     915
##  5 2013-01-05 00:00:00     720
##  6 2013-01-06 00:00:00     832
##  7 2013-01-07 00:00:00     933
##  8 2013-01-08 00:00:00     899
##  9 2013-01-09 00:00:00     902
## 10 2013-01-10 00:00:00     932
## # ... with 355 more rows
```

You can also `group_by()` the day variable we made above, but it won't retain the `POSIXct` object as nicely.

```r
lubridate_min_flight %>% group_by(day) %>%
   summarize(flights=sum(flights))
```

```
## # A tibble: 31 x 2
##      day flights
##    <int>   <dbl>
##  1     1   11036
##  2     2   10808
##  3     3   11211
##  4     4   11059
##  5     5   10858
##  6     6   11059
##  7     7   10985
##  8     8   11271
##  9     9   10857
## 10    10   11227
## # ... with 21 more rows
```
…
You can use the tsibble function `fill_gaps()` to fill missing gaps without merging it with an index. Learn more about this function [here](https://tsibble.tidyverts.org/reference/fill_gaps.html).

```r
tsibble_flights_full <- fill_gaps(tsibble_flights, flights = 0)
tsibble_flights_full
```

```
## # A tsibble: 525,285 x 2 [1m] <?>
##    time                flights
##    <dttm>                <dbl>
##  1 2013-01-01 05:15:00       1
##  2 2013-01-01 05:16:00       0
##  3 2013-01-01 05:17:00       0
##  4 2013-01-01 05:18:00       0
##  5 2013-01-01 05:19:00       0
##  6 2013-01-01 05:20:00       0
##  7 2013-01-01 05:21:00       0
##  8 2013-01-01 05:22:00       0
##  9 2013-01-01 05:23:00       0
## 10 2013-01-01 05:24:00       0
## # ... with 525,275 more rows
```
…
